Project 1
…
#offensive talent by League
shortdat %>%  filter(!is.na(talent)) %>% group_by(lgid) %>% summarize(avg_off600 = mean(off600), sd_off600 = sd(off600), var_off600 = var(off600), min_off600 = min(off600), max_off600 = max(off600))

## # A tibble: 2 x 6
##   lgid  avg_off600 sd_off600 var_off600 min_off600 max_off600
##   <chr>      <dbl>     <dbl>      <dbl>      <dbl>      <dbl>
## 1 AL          11.4      13.9       194.      -25.7       68.7
## 2 NL          12.4      14.4       207.      -19.4       52.0

These statistics shows that offensive talent is more plentiful in the American League

#RBI leaderboards 
shortdat %>% group_by(rbi, id) %>% count(sort=T) %>% ungroup() %>% arrange(desc(rbi)) 

## # A tibble: 8,302 x 3
##      rbi id            n
##    <int> <chr>     <int>
##  1   165 ramirma02     1
##  2   158 sosasa01      1
##  3   157 gonzaju03     1
##  4   153 davisto02     1
##  5   150 galaran01     1
##  6   149 fostege01     1
##  7   148 benchjo01     1
##  8   148 palmera01     1
##  9   147 mcgwima01     2
## 10   147 griffke02     1
## # ... with 8,292 more rows
…
